rcwChart • rcw
…
Scatter Chart

scatterData <- rcw_rand
scatterData$x <- scatterData$y * sample(seq(0, 1, 0.01), nrow(scatterData))

## Warning in sample.int(length(x), size, replace, prob): '.Random.seed' is
## not an integer vector but of type 'NULL', so ignored

rcwChart(scatterData, type = "scatter")

Data

ScatterChart requires numeric vectors both at x and y

## # A tibble: 30 x 4
##         x     y highlightIndex baselineIndex
##     <dbl> <dbl>          <int>         <int>
##  1  46.41    51             -1            -1
##  2   0.38     1             -1            -1
##  3  17.10    19             -1            -1
##  4  60.80    76             -1             0
##  5  63.84    76             -1            -1
##  6   1.44    16             -1            -1
##  7   6.65    35             -1            -1
##  8   9.60    15              0            -1
##  9 -16.32   -17             -1            -1
## 10  64.60    85             -1            -1
## # ... with 20 more rows
…
