Scatter Chart • rcw
…
      Scatter Chart

            2017-10-20

Scatter Chart

scatterData <- rcw_rand
scatterData$x <- scatterData$y * sample(seq(0, 1, 0.01), nrow(scatterData))
rcwChart(scatterData, type = "scatter")

Data scatterData

ScatterChart requires numeric vectors both at x and y

## # A tibble: 30 x 4
##        x     y highlightIndex baselineIndex
##    <dbl> <dbl>          <int>         <int>
##  1 95.06    98             -1            -1
##  2 81.78    94             -1            -1
##  3  9.38    67             -1            -1
##  4 53.13    69             -1             0
##  5  6.90    15             -1            -1
##  6 -5.28   -16             -1            -1
##  7 45.90    85             -1            -1
##  8  5.55    15              0            -1
##  9  1.55     5             -1            -1
## 10 57.00    57             -1            -1
## # ... with 20 more rows
…
